"BIBH","BIBA","BIBF","BIBG","BIBT","BIBP","BIBS","BIBD","BIBL","oss"
1438,"AA. VV.","contributo in miscellanea","Studi miscellanei ","Ostia I",,"13","1967-68","Roma",
1439,"AA. VV.","contributo in periodico","Notizie degli Scavi di Antichità","Sibari III",,"S. 8, XXVI",1972,,
1440,"AA. VV. (Frere S., a cura di)",,"Verulamium Excavations",,"195-196","I",1972,"Oxford",
1441,"AA.VV.","libro","Gläser der Antike. Sammlung Erwin Oppenländer",,,,1974,"Hamburg",
1442,"AA.VV.","contributo in miscellanea","Studi miscellanei ","Ostia IV",,"29",1978,"Roma",
1443,"AAVV","conributo in periodico","Archeologia medievale","Lo scavo nella abbazia di San Fruttuoso di Capodimonte Camogli (Ge). Notizia preliminare sulla campagna 1985","209","XIII",1986,"Firenze",
1444,"AAVV","libro","I Bizantini in Italia",,,,1982,"Milano",
1445,"AAVV","atti","La ceramique medievale en Mediterranee occidentale: 10.-15. siecles : Valbonne","Contributi dell'archeologia medievale ligure alle conoscenze dei prodotti ceramici nel Mediterraneo occidentale","114-123",,1980,"Paris",
1446,"Alarcao J. A.","monografia ","Vidros romanos de Conimbriga",,,,1965,"Coimbra",
1447,"Andren A.","atti","Acta Instituti Romani Regni Sueciae","Architectural Terracottas from Etrusco-Italic Temples",,"VI","1939-40","Lund-Leipzig",
1448,"Arias P. E./ Montagna Pasquinucci N./ Pancrazzi O.","contributo in periodico","Notizie degli Scavi di Antichità","Sovrana (Grosseto). Scavi effettuati dal 1962 al 1964","55-194","S. 8, XXV",1971,,
1449,"Baldacci P.","atti","Atti, Centro Studi e Documentazioni sull'Italia Romana","Alcuni aspetti dei commerci nei territori cisalpini","5-50","I","1967-68","Milano-Varese",
1450,"Baldacci P.","contributo in periodico","Recherches sur les amphores romaines (Suppl. a MEFRA)","Importazioni cisalpine e produzione apula","7-28","10",1972,"Roma",
1451,"Balla L./ Buócz T./ Kádár Z./ Mócsy A./ Szentléleky T.","monografia ","Die römischen Steindenkmäler von Savaria",,,,1971,"Amsterdam",
1452,"Balland A.","monografia ","Fouilles de l'École française de Rome à Bolsena. III. La céramique étrusco-campanienne à vernis noir. 1. ",,,"Suppl. 6",1969,"Roma",
1453,"Banti L.","monografia ","Luni",,,,1937,"Firenze",
1454,"Baradez J.","monografia ","Lybica",,,,1957,,
1455,"Barberà J.","contributo in periodico","Zephirus","Hallargo submarino de un pecio con cargamento de ceramica campaniense","173-175","X",1959,,
1456,"Barberà J.","contributo in periodico","Ampurias","La cerámica barnizada de negro del poblado ilergeta del Tossal de les Tenalles de Sidamunt (Lérida)","135-163","XXVI-XXVII","1964-65",,
1457,"Barfield L. H./ Wentscher J./ Wild J. P.","contributo in periodico","Bonner Jahrbücher","Die Ausgrabungen unter dem Universitätsgebäude Bonn im März 1962","342-367","163",1963,,
1458,"Bass G. F.","contributo in periodico","Archäologischer Anzeiger","Underwater Excavations at Yassi Ada: A Byzantine Shipwreck","537-564",,1962,,
1459,"Beazley J. D.","monografia ","Etruscan Vase-Painting",,,,1947,"Oxford",
1460,"Bebko W.","monografia ","Corsica ","Les épaves antiques du Sud de la Corse",,"1-3",1971,,
1461,"Beddoe M.","conributo in periodico","Papers of the British School at Rome","The metalware and other finds in Excavation at Tuscania 1973: Report on the Finds from six selected pits",,"XLI",1973,,
1462,"Belli d'Elia P.","libro","Alle asorgenti del romanico",,,,1975,"Bari",
1463,"Beltran Lloris M.","atti","Méthodes classiques et méthodes formelles dans l´etude des amphores. Actes du colloque de Roma","Problemas de la morfología y del concepto histórico-geográfico que recubre la noción tipo. Aportaciones a la tipología de las ánforas béticas","97-131","32",1977,"Roma",
1464,"Bender H./ Steiger R.","contributo in miscellanea","Beiträge und Bibliographie zur Augster Forschung","Ein römischer Töpferbezirk des I Jahrhunderts n. Chr. in Augst - Kurzenbettli","198-287",,1975,"Basel",
1465,"Berger L. ","monografia ","Römische Gläser aus Vindonissa",,,,1960,"Basel",
1466,"Berti G., Tongiorgi  E.","libro","Ceramiche importate dalla Spagna nell'area pisana dal XII al XV secolo",,,,1985,"Firenze",
1467,"Bianchi Bandinelli R.","monografia ","Storicità dell'Arte Classica","Gusto e valore dell'arte provinciale",,,1973,"Bari",
1468,"Blake H.",,"Atti V Convegno Internazionale della Ceramica","La ceramica medievale spagnola e la Liguria","55-91",,1972,"Albisola",
1469,"Blake M. E.","monografia ","Ancient Roman Construction in Italy from the Prehistoric Period to Augustus",,,"I",1947,"Washington",
1470,"Boardman J.","monografia","Greek gems and finger rings",,,,1970,"Londra",
1471,"Bogaers J. A. N.","monografia ","De gallo-romeinse Tempels te Elst in de Over-Betuwe",,,,1955,"Gravenhage",
1472,"Bonora F.","conributo in periodico","Archeologia medievale","L'indagine archeologica sul complesso architettonico di San Fruttuoso di Capodimonte. Notizia preliminare","191","XIII",1986,"Firenze",
1473,"Boon G. C.","contributo in periodico","Journal of Glass Studies","Roman window glass from Wales","41-45","VIII",1966,,
1474,"Bourgeois A.","contributo in periodico","Cuadernos de Arqueologia e Historia de la Ciudad","Céramique Paleochretienne de Barcelone",,"XV",1973,,
1475,"Bozzo Dufour C.","contributo in miscellanea","La scultura a Genova e in Liguria","Dal Medio bizantino al Protoromanico: ",,"I",1987,"Genova",
1476,"Breitenstein N.","catalogo mostra","Catalogue of terracottas, Cypriote, Creek, Etrusco-Italian and Roman(Danish National Museum)",,,,1941,"Copenhagen",
1477,"Brown F. E./ Hill Richardson E./ Richardson L.","contributo in periodico","Memoirs of the American Academy in Rome","Cosa II. The Temples of the Arx",,"XXVI",1960,"Roma",
1478,"Bruckner A.","atti","Rei Cretariae Romanae Fautores Acta","Küchengeschirr aus der Casa del Fauno in Pompeji","7-14","VI",1965,,
1479,"Buchi E.","atti","Il territorio veronese in età romana. Atti del Convegno, Verona 22-24 ottobre 1971","Banchi di anfore romane a Verona. Note sui commerci cisalpini","531-637",,1973,"Verona ",
1480,"Cagiano De Azevedo M. et alii (a cura di)","monografia ","Missione Archeologica Italiana a Malta. Rapporto preliminare della campagna di scavo 1969",,,,1972,"Roma",
1481,"Calvi M. C.","monografia ","I Vetri Romani del Museo di Aquileia",,,,1968,"Aquileia",
1482,"Camilla P.","contributo in periodico","Rivista di Studi Liguri ","Scoperte archeologiche nel territorio di Forum Germanorum","110-119","XXVIII",1961,,
1483,"Cardini L.","contributo in periodico","Atti XIV Riunione Scientifica IIPP","Dipinti schematici antropomorfi della Grotta Romanelli e su ciottoli dei livelli mesolitici della Caverna delle Arene Candide e della Grotta Madonna a Praia a Mare","225-235",,1972,"Firenze",
1484,"Carettoni G.","contributo in periodico","Notizie degli Scavi di Antichità","Roma (Palatino). Saggio all'interno della casa di Livia","72-119","XI",1957,,
1485,"Cavallaro L.","conributo in periodico","Benedictina","San Fruttuoso di Capodimonte: una “storia” nella pietra",,"XXXIII",1968,,
1486,"Cerulli Irelli G.","monografia ","Memorie dell'Accademia di Archeologia, Lettere e Belle Arti di Napoli","La casa del colonnato tuscanico a Ercolano",,"7",1974,"Napoli",
1487,"Collingwood R. G./ Richmond I. A.","monografia ","The Archaeology of Roman Britain",,,,1962,"London",
1488,"Condurachi E./ Daicoviciu C.","monografia ","Roumanie",,,,1972,"Genève",
1489,"Cristofani M.","contributo in periodico","Notizie degli Scavi di Antichità","Volterra (Pisa). Scavi nella necropoli del Portone (1971): tomba ellenistica","5-35","S. 8, XXIX",1975,,
1490,"Cristofani M.","contributo in periodico","Notizie degli Scavi di Antichità","Reggio Calabria. Cisterne ellenistiche con materiale di scarico","221-242","XXII",1968,,
1491,"Daremberg CH./ Saglio E.","enciclopedia","Dictionnaire des Antiquités Grecques et Romaines","s.v. calceus","816","I 2",1908,"Paris",
1492,"Degrassi N.","contributo in periodico","Rivista di Studi Liguri",,,"XI",1945,,
1493,"Deneauve J.","monografia ","Lampes de Carthage",,,,1969,"Paris",
1494,"Dioli F., Leali-Rizzi T.","monografia","Un monastero, una storia: San Fruttuoso di Capodimonte dalle origini al IV secolo",,,,1985,"Recco",
1495,"Duncan G. C.","contributo in periodico","Papers of the British School at Rome","Roman republican pottery from the vicinity of Sutri (Sutrium)","134-176","XXXIII, n. s. XX",1965,,
1496,"Duncan G. C.","contributo in periodico","Papers of the British School at Rome","A Roman Pottery near Sutri","38-88","XIX",1964,,
1497,"Durante A./ Massari G.","catalogo mostra","Restauri in Liguria ","Ameglia. Necropoli a incinerazione, tomba 7","54-66",,1978,"Genova",
1498,"Durante A./ Massari G.","contributo in periodico","Quaderni Centro Studi Lunensi","Comunicazione sulla necropoli di Ameglia","17-34","2",1977,,
1499,"Dyson L. S.","contributo in periodico","Memoirs of the American Academy in Rome","Cosa: the utilitarian pottery",,"XXXIII",1976,,
1500,"Esperandieu E.","monografia ","Recueil général des bas-reliefs, statues et bustes, de la Gaule romaine",,,"VIII",1922,"Paris",
1501,"Esperandieu E.","monografia ","Recueil général des bas-reliefs, statues et bustes, de la Gaule romaine",,,"I",1907,"Paris",
1502,"Fabbricotti E.","contributo in periodico","Archeologia Classica","Osservazioni sul volume di H. Mielsch,  Römische Architekturterrakotten und Wandmalereien im Akademischen Kunstmuseum in Bonn",,"XXVII",1975,,
1503,"Février P. A.","contributo in periodico","Gallia ","Fouilles à la Plate-Forme de Forum Julii (Fréjus, Var) en 1960 et 1961","177-203","20",1962,,
1504,"Février P. A.","contributo in periodico","Rivista di Studi Liguri","Remarques préliminaires sur la céramique d'Afrique du Nord ","125-136","XXIX",1963,,
1505,"Février P. A.","monografia ","Fouilles de Sétif Les basiliques du quartier nord-ouest",,,,1965,"Paris",
1506,"Fiorentini G.","contributo in periodico","Rivista di Studi Liguri ","Prime osservazioni sulla ceramica campana della Valle del Po","7-52","XXIX",1963,,
1507,"Fiorentini G.","contributo in periodico","Rivista di Studi Liguri",,,"XXIX",1963,,
1508,"Formentini U","contributo in miscellanea","Storia di Genova dalle origini al tempo nostro","L'arte romanica genovese ed i “Magistri Antelami”","273-311","III",1942,"Milano",
1509,"Francovich R. - Gelichi S.","libro","La ceramica spagnola in Toscana nel bassomedioevo",,,,1984,"Firenze",
1510,"Frondoni A.","contributo in miscellanea","La scultura a Genova e in Liguria","L'Altomedioevo: età longobarda e carolingia",,,1987,"Genova",
1511,"Gamurrini G. F.","contributo in periodico","Notizie degli Scavi di Antichità","Arezzo. Di una nuova figulina di vasi neri e rossi, scoperta nell'Orciolaia presso Arezzo ","63-72",,1890,,
1512,"García y Bellido A.","contributo in periodico","Archivo Español de Arqueología","Parerga de arqueología y epigrafía hispano-romanas (II)","191-206","36",1963,,
1513,"Gianfrotta P. A./ Polla M./ Mazzucato A.","contributo in periodico","Bollettino della Commissione Archeologica Comunale","Scavi nell'area del Teatro Argentina (1968-1969)","25-114","81","1968-69",,
1514,"Giuliano A.","monografia ","Arco di Costantino",,,,1955,"Milano",
1515,"Goodburn R.","monografia ","The Roman Villa, Chedworth",,,,1972,"London",
1516,"Goudineau Ch.","contributo in periodico","Mélanges d'archéologie e d'histoire - Mélanges de l'École française de Rome","Note sur la céramique à engobe interne rouge-pompéien (« Pompe-janisch-roten Platten »)","159-186","LXXXII",1970,,
1517,"Grace V.","monografia ","Amphora and the ancient wine trade",,,,1961,"Princeton ",
1518,"Harden D. B.","contributo in miscellanea","Studies in Building History: essays in recognition of the work of B. H. St. J. O'Neill","Domestic window-glass: Roman, Saxon and Medieval","39-63",,1961,"London",
1519,"Harden D. B.","monografia ","Ancient Glass",,,,1962,"London",
1520,"Harden D. B.","contributo in periodico","Journal of Roman Studies","Romano-Syrian Glasses with Mould-blown Inscriptions","163-186","25",1935,,
1521,"Harden D. B.","contributo in periodico","Syria","Two Tomb-Groups of First Century AD from Yahmour, Syria,and the supplement to the list of Romano-Syrian Glasses with mould-blown inscriptions","81-95","24",1944,,
1522,"Harden D. B. et al.","monografia","Masterpieces of Glass. The British Museum",,,,1968,"London",
1523,"Hawkes C. F./ Hull M. R.","monografia ","Camulodunum. First Report on the Excavations at Colchester 1930-1939",,,,1947,"Oxford",
1524,"Hayes J. W.","atti","Rei Cretariae Romanae Fautores Acta","Early Roman Wares from the House of Dionysos, Paphos","96-108","XVII-XVIII",1977,,
1525,"Hayes J. W.","contributo in periodico","Hesperia","North Syrian Mortaria","337-347","36",1967,,
1526,"Hussong L./ Cüppers H.","contributo in periodico","Trierer Grabungen und Forschungen","Die Trierer Kaiserthermen. Die Spätrömische und frühmittelalterliche Keramik",,"I/2",1972,"Mainz",
1527,"Jashemski W. F.","contributo in periodico","American Journal of Archaeology","The Discovery of a Market-Garden Orchard at Pompeii: The Garden of the ""House of the Ship Europa""","391-404","78",1974,,
1528,"Lamboglia N.","contributo in periodico","Rivista di Studi Liguri ","La campagna 1963 sul relitto di Punta Scaletta all'isola di Giannutri. Relazione preliminare","229-257","XXX",1964,,
1529,"Lamboglia N.","contributo in periodico","Rivista di Studi Liguri ","Problemi tecnici e cronologici dello scavo sottomarino al Grand Congloué",,"XXVII",1961,,
1530,"Lamboglia N.","contributo in periodico","Rivista di Studi Liguri","La stratigrafia del teatro di Albintimilium e la datazione dei monumenti romani","171-199","XVI",1950,,
1531,"Lamboglia N.","contributo in periodico","Rivista di Studi Liguri","Punti fermi sul teatro romano di Ventimiglia","270-290","XXVIII",1962,,
1532,"Lamboglia N.","contributo in periodico","Rivista Ingauna e Intemelia","Scavi e scoperte nel Battistero di Sanremo","23-39","N.S. XVI",1960,,
1533,"Lamboglia N.","contributo in periodico","Rivista di Studi Liguri","La nave romana di Albenga. Storia e vicende della scoperta","131-236","XVIII",1952,,
1534,"Lamboglia N.","contributo in miscellanea","Studi in onore di A. Calderini e R. Paribeni","La questione della cupola nel battistero di Albenga","731-746","III",1956,"Milano",
1535,"Lamboglia N.","contributo in periodico","Rivista di Studi Liguri",,,"XXVII",1961,,
1536,"Lamboglia N.","contributo in periodico","Rivista di Studi Liguri","La seconda campagna  di scavi nella necropoli ligure di Chiavari (1962-1963) - Studio preliminare",,"XXX",1964,,
1537,"Lamboglia N./ Siccardi A.","contributo in periodico","Rivista Ingauna e Intemelia","Nuovi scavi nella necropoli romana del ""Monte"" ad Albenga","63-73","N.S. XIV",1959,,
1538,"Lane A.","libro","Early islamic pottery",,,,1947,,
1539,"Lang M.","contributo in periodico","Hesperia","Dated Jars of Early Imperial Times",,"XXIV",1955,,
1540,"Lapp P. W.","monografia ","Palestinian Ceramic Chronology 200 B.C.-A.D. 70",,,,1961,"New Haven",
1541,"Lequement R./ Liou B.","contributo in periodico","Mélanges d'archéologie e d'histoire - Mélanges de l'École française de Rome","Céramique étrusco-campanienne et céramique arétine, à propos d'une nouvelle épave de Marseille","587-603","88",1976,,
1542,"Levi D.","contributo in periodico","Studi Etruschi","Una tomba a incinerazione dell'Alta Versilia","529-532","VI",1932,,
1543,"Liou B.","contributo in periodico","Gallia ","Recherches sous-marines","571-608","XXXI",1973,,
1544,"Lunardi G.","libro","Le monete della Repubblica di Genova",,,,1975,"Genova",
1545,"M. Bergmann","monografia","Studien zum römischen Porträt des 3. Jahrhundert n. Chr.",,,,1977,"Bonn",
1546,"Maggi R.","conributo in periodico","Preiastoria Alpina","Le ceramiche graffite nel Neolitico del Mediterraneo centro-occidentale","49-55","13",1977,"Trento",
1547,"Mana De Angulo J. M.","atti","Crònica del VI Congreso Arqueológico del Sudeste Español. Alcoy, 1950","Sobre tipología deánforas púnicas","203-210",,1951,"Cartagena",
1548,"Marshall F.","catalogo mostra","British Museum","Catalogue of the Jewellery GreeK Etruscan and Roman, in the Department of Antiquities",,,1969,"Oxford",
1549,"Mau A.","enciclopedia","Pauly-Wissowa, Realencyclopädie der Classischen Altertumswissenschaft","s.v. aluta","cc. 1706-1707","I 2",1984,"Stoccarda",
1550,"Mencacci P./ Zecchini M.","monografia ","Lucca preistorica ",,,,1976,"Firenze",
1551,"Mercando L.","contributo in periodico","Bullettino della Commissione Archeologica comunale di Roma","Area sacra di S. Omobono, esplorazione della fase repubblicana: saggi di scavo sulla platea dei templi gemelli","35-67","79","1963-64",,
1552,"Mercando L.","enciclopedia","Enciclopedia dell'Arte Antica","s.v. lucerna",,"Suppl.",1970,,
1553,"Mesplé P.","contributo in periodico","Gallia","L'atelier de potier gallo-romain de Galane à Lombez (Gers)","pp. 41-71","XV",1957,,
1554,"Mielsch H.","monografia ","Römische Architekturterrakotten und Wandmalereien im Akademischen Kunstmuseum Bonn",,,,1971,"Berlin",
1555,"Milanese M.","conributo in periodico","Atti XV Convegno Internazionale della Ceramica","Graffita a girandola, graffita  tarda ed altri tipi ceramici ","123-144","XV",1982,,
1556,"Montagna Pasquinucci M.","contributo in periodico","Mélanges d'archéologie e d'histoire - Mélanges de l'École française de Rome","La ceramica a vernice nera del Museo Guarnacci di Volterra","269-498","LXXXIV",1972,,
1557,"Morel J.P.","monografia","Céramique à vernis noir du forum romain du Palatin",,,,1965,"Parigi",
1558,"Morel J.P.","contributo in periodico","Antiquités africaines","Céramique à vernis noir du Maroc","pp. 55-76","Vol. 2, N. 1",1968,,
1559,"Morel J.P.","contributo in periodico","Mélanges d'archéologie e d'histoire - Mélanges de l'École française de Rome","Etudes de céramique campanienne. I: L’atelier des petites estampilles","59-117","LXXXI",1969,,
1560,"Morel J.P.","monografia ","École française de Rome","Céramique à vernis noir du Forum Romain et du Palatin",,"S. III",1965,"Roma",
1561,"Morel J.P.","contributo in periodico","Mélanges d'archéologie e d'histoire - Mélanges de l'École française de Rome","Notes sur la céramique étrusco-campanienne. Vases à vernis noir de Sardaigne et d’Arezzo","7-58","75",1963,,
1562,"Morel J.P.","contributo in periodico","Rei Cretariae RF Acta","Céramique a vernis noir de Pompei","81-103","VI",1965,,
1563,"Morel J.P.","contributo in periodico","Bulletin d'Archéologie Algérienne","Céramique d'Hippone","107-139","I","1962-1965 (1967)",,
1564,"Morel J.P.","contributo in periodico","Antiquités Africaines","Céramique à vernis noir du Maroc","55-76","2",1968,,
1565,"NegriI.  Vercelloni V.","libro","I Giuochi di dadi, d'azzardo e di passatempo di gentiluomini e dei pirati",,,,1958,"Milano",
1566,"Neumann A.","monografia ","Vindobona",,,,1972,"Graz",
1567,"Nicosia A.","monografia ","Ceramica a vernice nera della stipe di Mèfete (Aquinum nel territorio di Castrocielo-Frosinone)",,,,1976,"Pontecorvo",
1568,"Pallarés F.","contributo in periodico","Rivista Ingauna e Intemelia","Nuove tombe nella necropoli romana di Albintimilium","52-61","N.S. XVIII",1963,,
1569,"Pallarés F.","contributo in periodico","Rivista Ingauna e Intemelia","La necropoli preromana della Pieve del Finale","16-21","N.S. XX, 1-3",1965,,
1570,"Pallarés F.","contributo in periodico","Rivista di Studi Liguri","Terra sigillata clara de tipo ""A"" decorata en Valencia y Ventimiglia","125-129","XXV",1959,,
1571,"Pallarés Salvador F.","contributo in periodico","Rivista Ingauna e Intemelia","La suppellettile della necropoli di Sanremo","74-80","N.S. XVI",1961,,
1572,"Panella C.","contributo in miscellanea","Studi miscellanei ","Per uno studio delle anfore di Pompei","151-162","22","1974-1975",,
1573,"Panella C./ Fano M.","contributo in periodico","Méthodes classiques et méthods formelles dans l’étude des amphores. Collection de l'Ecole Française de Rome","Le anfore con anse bifide conservate a Pompei: contributo ad una loro classificazione","133-177","32",1977,"Roma",
1574,"Pavolini C.","contributo in periodico","Dialoghi di Archeologia","recens. a Heres G., Die römischen Bildlampen der Berliner. Antiken -Sammlung, Berlin 1972",,"VII",1973,,
1575,"Pilar M./ Serrano G.","contributo in periodico","Archivo Español de Arqueología","Ánforas romanas con la marca ""Sestius""","113-122","33",1960,,
1576,"Rizzo G. E.","contributo in periodico","Ausonia ","Antinoo-Silvano. Stele scolpita da Antoniano di Afrodisia","3-17","III",1908,"Roma",
1577,"Robinson H. S.","monografia","Pottery of the Roman period: chronology, The Athenian Agorà",,,"V",1959,"Princeton ",
1578,"Rodriguez Almeida E.","contributo in periodico","Mélanges de l'Ecole française de Rome. Antiquité","Sobre el uso del anforisco ""Cucurbitula""","pp. 813-818","86 n. 2",1974,,
1579,"Romanelli P.","contributo in periodico","Monumenti Antichi dell'Accademia dei Lincei","Lo scavo al Tempio della Magna Mater sul Palatino e nelle sue adiacenze","201-330","XLVI",1963,,
1580,"Roscher W. H.","enciclopedia","Ausführliches Lexikon der griechischen und römischen Mythologie",,"cc. 869-872","I-VI","1884-1937","Leipzig",
1581,"Roveri A. ","enciclopedia","Enciclopedia Classica ",,"pp. 450-451","S. I, III",1963,,
1582,"Rüger C. B.","contributo in periodico","Madrider Mitteilungen","Römische Keramik aus dem Kreuzgang der Kathedrale von Tarragona","237-258","9",1968,,
1583,"Saletti C.","monografia ","Il ciclo statuario della Basilica di Velleia",,,,1968,"Milano",
1584,"Saletti C.","atti","Il Territorio veronese in età romana (Atti del Convegno, Verona 22-24 ottobre 1971)","Testimonianze della grande bronzistica di Verona romana","135 ss.",,1973,"Verona ",
1585,"Salomonson J. W.","contributo in periodico","BABesch","Etudes sur la céramique romaine de Afrique. Sigillée claire et céramique commune de Henchir El Ouiba (Raqqada) en Tunisie Centrale","80-145","XLIII",1968,,
1586,"Scarfì B. M.","contributo in periodico","Monumenti Antichi pubblicati per cura della Accademia Nazionale dei Lincei","Gioia del Colle - Scavi nella zona di Monte Sannace ",,"XLV",1961,,
1587,"Schindler M.","contributo in miscellanea","Kärnter Museumsschriften","Die ""Schwarze Sigillata"" des Magdalensberges",,"XLIII",1967,"Klagenfurt",
1588,"Schönberger H./ Simon H. G. ","contributo in miscellanea","Limesforchungen","Römerlager Rödgen ",,"15",1976,"Berlin",
1589,"Smith R. W.","libro","Glass from the Ancient World. The Ray Winfield Collection. A special Exhibition, 1957, The Corning Museum of Glass",,,,1957,"Corning-New York",
1590,"Tailliez R. H.","atti","Atti II Congresso Internazionale di Archeologia Sottomarina, Albenga 1958 ","Travaux de l'ètè 1958 sur l'èpave du Titan à l'ile du Levantu (Toulon)",,,1961,,
1591,"Taylor D. M.","contributo in periodico","Memoirs of the American Academy in Rome","Cosa: black glaze pottery","65-193","XXV",1957,,
1592,"Ucelli G.","monografia ","Le navi di Nemi",,,,1940,"Roma",
1593,"Uggeri G.","atti","Atti e Memorie della Deputazione Provinciale Ferrarese di Storia Patria","La romanizzazione dell'antico Delta Padano",,"S. III, XX",1975,,
1594,"Vegas M.","contributo in periodico","Bonner Jahrbücher","Vorlaüfiger Bericht über römischer Gebrauchskeramik aus Pollentia (Mallorca)","275-304","163",1963,,
1595,"Vegas M.","contributo in periodico","Bonner Jahrbücher","Römische Keramik von Gabii (Latium)","13-55","168",1968,,
1596,"Vessberg O./Westholm A.","contributo in miscellanea","The Swedish Cyprus Expedition IV, 3","The Hellenistic and Roman Period in Cyprus",,,1956,,
1597,"Von Hessen O.","monografia","Die langobardischen Funde aus dem Gräberfeld von Testona (Moncalieri, Piemonte)",,,,1971,"Firenze",
1598,"Von Hessen O.","monografia","Primo contributo all'archeologia longobarda in Toscana. Le Necropoli",,,,1971,"Firenze",
1599,"Von Rohden H./ Winnefeld H.","contributo in miscellanea","Die Antiken Terrakotten","Architektonische Römische Tonreliefs der Kaiserzeit",,"IV",1911,"Berlin-Stuttgart",
1600,"Walke N.","monografia","Das Römische Donau Kastelle Straubing-Sorviodurum",,,,1965,"Berlin",
1601,"Zevi F./ Pohl I.","contributo in periodico","Notizie degli Scavi di Antichità","Ostia (Roma). Caserma dei vigili. Scavo sotto il mosaico del vano antistante il ""Cesareo"". Casa delle pareti gialle, salone centrale. Scavo sotto il pavimento a mosaico",,"XXIV (Suppl. I)",1970,,
1602,"Zevi F./ Tchernia A.","contributo in periodico","Antiquités Africaines","Amphores de Byzacène au Bas Empire. I due tipi d'anfora africani","175-178","3",1969,,
